name,canonical,oid,version,id,type
,http://loinc.org,2.16.840.1.113883.6.1,,,
CodeSystem-elga-lebensmittelallergene,https://termgit.elga.gv.at/CodeSystem-elga-lebensmittelallergene,1.2.40.0.34.5.215,1.0.0+20220913,elga-lebensmittelallergene,CodeSystem
CodeSystem-appc-anatomie,https://termgit.elga.gv.at/CodeSystem/appc-anatomie,1.2.40.0.34.5.38.4,1.0.0+20230131,appc-anatomie,CodeSystem
ValueSet-elga-lebensmittelallergene,https://termgit.elga.gv.at/ValueSet-elga-lebensmittelallergene,1.2.40.0.34.6.0.10.75,1.0.0+20221018,elga-lebensmittelallergene,ValueSet
ValueSet-test-versioning,https://termgit.elga.gv.at/ValueSet-test-versioning,1.2.40.0.34.10.65,1.0.12,test-versioning,ValueSet
ValueSet-appc-anatomie,https://termgit.elga.gv.at/ValueSet/appc-anatomie,1.2.40.0.34.10.65,1.0.0+20230131,appc-anatomie,ValueSet
